{
    "type": "mysql",
    "host": "db-user",
    "port": "3308",
    "username": "root",
    "password": "mysql",
    "database": "users_db",
    "synchronize": false,
    "logging": false,
    "entities": ["src/**/*.entity.js","dist/**/*.entity.js"],
    "migrations": ["migration/*.ts"],
      "cli": {
          "migrationsDir": "migration"
      }
}